{

com.badlogic.gdx.scenes.scene2d.ui.TextButton$TextButtonStyle:
{
default: { down:default-round-down, down:default-round, font: default-font, fontColor:white},
toggle: { down:default-round-down,up: default-font, checked:default-round-down, font: default-font, fontColor:white, downFontColor:red }
}

}
